Tutorial 2: Nowcasting National and Subnational Digital Gender Gaps
…
Our model appears to be performing well, explaining 66% of the variation in internet adoption using only three features.

2.4 Leave-one-country-out Cross-validation

Nevertheless, we want to know how well our model would perform in countries we had no training data at all (e.g., not one of the 34 countries in our dataset). This time we would employ leave-one-country-out cross-validation rather than the standard 10-fold cross-validation. In this approach, we iteratively exclude all subnational units from one country, train the model on subnational units from the remaining countries, and then assess its performance on the excluded country’s subnational units. This method evaluates the model’s ability to generalize to unseen countries (assuming they are similar to the countries we have in our dataset).

Here, we’ll split into folds based on country (rather than random). Calculate MAE, RMSE, and \(R^2\).

set.seed(47)
## make new folds 
folds_loco <- group_vfold_cv(internet_subnational, group = country)
folds_loco

# Group 34-fold cross-validation 
# A tibble: 34 × 2
   splits           id        
   <list>           <chr>     
 1 <split [558/12]> Resample01
 2 <split [565/5]>  Resample02
 3 <split [566/4]>  Resample03
 4 <split [564/6]>  Resample04
 5 <split [560/10]> Resample05
 6 <split [559/11]> Resample06
 7 <split [510/60]> Resample07
 8 <split [523/47]> Resample08
 9 <split [561/9]>  Resample09
10 <split [560/10]> Resample10
# ℹ 24 more rows
…
